## Autogenerated by Scribe. DO NOT MODIFY.

name: Продукты
description: |-

  API для работы с продуктами магазина

  Продукты - основные товары, доступные в магазине магических товаров.
  API предоставляет возможности для получения списка продуктов с фильтрацией,
  сортировкой и пагинацией, а также детальной информации о конкретном продукте.

  ## Структура продукта

  Каждый продукт содержит следующие основные поля:
  - `id` - Уникальный идентификатор продукта
  - `name` - Название продукта
  - `slug` - Уникальный текстовый идентификатор для URL
  - `description` - Описание продукта
  - `price` - Текущая цена
  - `dimensions` - Физические характеристики (ширина, высота, глубина, вес)
  - `categories` - Категории, к которым относится продукт
  - `images_urls` - Массив URL изображений продукта
  - `is_new` - Флаг новинки
  - `is_bestseller` - Флаг хита продаж

  ## Фильтрация и сортировка

  API продуктов предоставляет разнообразные возможности фильтрации:
  - По категории
  - По ценовому диапазону
  - По наличию статуса новинки или хита продаж
  - По текстовому поиску в названии

  Доступные варианты сортировки:
  - По цене (возрастание/убывание)
  - По названию (возрастание/убывание)
  - По дате добавления (убывание)
endpoints:
  -
    httpMethods:
      - GET
    uri: 'api/v1/products/{slug}'
    metadata:
      groupName: Продукты
      groupDescription: |-

        API для работы с продуктами магазина

        Продукты - основные товары, доступные в магазине магических товаров.
        API предоставляет возможности для получения списка продуктов с фильтрацией,
        сортировкой и пагинацией, а также детальной информации о конкретном продукте.

        ## Структура продукта

        Каждый продукт содержит следующие основные поля:
        - `id` - Уникальный идентификатор продукта
        - `name` - Название продукта
        - `slug` - Уникальный текстовый идентификатор для URL
        - `description` - Описание продукта
        - `price` - Текущая цена
        - `dimensions` - Физические характеристики (ширина, высота, глубина, вес)
        - `categories` - Категории, к которым относится продукт
        - `images_urls` - Массив URL изображений продукта
        - `is_new` - Флаг новинки
        - `is_bestseller` - Флаг хита продаж

        ## Фильтрация и сортировка

        API продуктов предоставляет разнообразные возможности фильтрации:
        - По категории
        - По ценовому диапазону
        - По наличию статуса новинки или хита продаж
        - По текстовому поиску в названии

        Доступные варианты сортировки:
        - По цене (возрастание/убывание)
        - По названию (возрастание/убывание)
        - По дате добавления (убывание)
      subgroup: ''
      subgroupDescription: ''
      title: 'Получить детальную информацию о продукте'
      description: |-
        Этот эндпоинт возвращает детальную информацию о конкретном продукте, включая его категории,
        связанные товары и медиафайлы. Продукт идентифицируется по его уникальному slug.
      authenticated: false
      custom: []
    headers:
      Content-Type: application/json
      Accept: application/json
    urlParameters:
      slug:
        name: slug
        description: 'Уникальный идентификатор продукта.'
        required: true
        example: aromaticheskaya-svecha-lavanda
        type: string
        enumValues: []
        exampleWasSpecified: true
        nullable: false
        custom: []
    cleanUrlParameters:
      slug: aromaticheskaya-svecha-lavanda
    queryParameters: []
    cleanQueryParameters: []
    bodyParameters: []
    cleanBodyParameters: []
    fileParameters: []
    responses:
      -
        status: 200
        content: |-
          {
            "data": {
              "id": 1,
              "name": "Ароматическая свеча Лаванда",
              "slug": "aromaticheskaya-svecha-lavanda",
              "description": "Успокаивающий аромат лаванды для безмятежного отдыха",
              "price": 1200.99,
              "dimensions": {
                "width": 10,
                "height": 12,
                "depth": 10,
                "weight": 350
              },
              "categories": [
                {
                  "id": 1,
                  "name": "Ароматические свечи",
                  "slug": "aromaticheskie-svechi",
                  "description": "Свечи с различными ароматами",
                  "icon": "http://localhost:8000/storage/7/candle4.svg",
                  "parent_id": null,
                  "sort_order": 4,
                  "is_visible": true
                }
              ],
              "related": [],
              "images_urls": ["http://localhost:8000/storage/1/images/candle1.jpg"],
              "created_at": "2023-01-01T12:00:00.000000Z",
              "updated_at": "2023-01-01T12:00:00.000000Z"
            }
          }
        headers: []
        description: 'Успешный запрос'
        custom: []
      -
        status: 404
        content: |-
          {
            "message": "Запрашиваемый ресурс не найден"
          }
        headers: []
        description: 'Продукт не найден'
        custom: []
    responseFields: []
    auth: []
    controller: null
    method: null
    route: null
    custom: []
  -
    httpMethods:
      - GET
    uri: api/v1/products
    metadata:
      groupName: Продукты
      groupDescription: |-

        API для работы с продуктами магазина

        Продукты - основные товары, доступные в магазине магических товаров.
        API предоставляет возможности для получения списка продуктов с фильтрацией,
        сортировкой и пагинацией, а также детальной информации о конкретном продукте.

        ## Структура продукта

        Каждый продукт содержит следующие основные поля:
        - `id` - Уникальный идентификатор продукта
        - `name` - Название продукта
        - `slug` - Уникальный текстовый идентификатор для URL
        - `description` - Описание продукта
        - `price` - Текущая цена
        - `dimensions` - Физические характеристики (ширина, высота, глубина, вес)
        - `categories` - Категории, к которым относится продукт
        - `images_urls` - Массив URL изображений продукта
        - `is_new` - Флаг новинки
        - `is_bestseller` - Флаг хита продаж

        ## Фильтрация и сортировка

        API продуктов предоставляет разнообразные возможности фильтрации:
        - По категории
        - По ценовому диапазону
        - По наличию статуса новинки или хита продаж
        - По текстовому поиску в названии

        Доступные варианты сортировки:
        - По цене (возрастание/убывание)
        - По названию (возрастание/убывание)
        - По дате добавления (убывание)
      subgroup: ''
      subgroupDescription: ''
      title: 'Получить список продуктов с фильтрацией, сортировкой и пагинацией.'
      description: |-
        Этот эндпоинт возвращает пагинированный список продуктов с возможностью фильтрации
        по различным параметрам, включая категорию, ценовой диапазон и статус "новинка".
      authenticated: false
      custom: []
    headers:
      Content-Type: application/json
      Accept: application/json
    urlParameters: []
    cleanUrlParameters: []
    queryParameters:
      search:
        name: search
        description: 'Строка для поиска продуктов по названию.'
        required: false
        example: свеча
        type: string
        enumValues: []
        exampleWasSpecified: true
        nullable: true
        custom: []
      category:
        name: category
        description: 'Slug категории для фильтрации продуктов.'
        required: false
        example: aromaticheskie-svechi
        type: string
        enumValues: []
        exampleWasSpecified: true
        nullable: true
        custom: []
      price_from:
        name: price_from
        description: 'numeric Минимальная цена для фильтрации.'
        required: false
        example: '100'
        type: string
        enumValues: []
        exampleWasSpecified: true
        nullable: true
        custom: []
      price_to:
        name: price_to
        description: 'numeric Максимальная цена для фильтрации.'
        required: false
        example: '500'
        type: string
        enumValues: []
        exampleWasSpecified: true
        nullable: true
        custom: []
      is_new:
        name: is_new
        description: 'Фильтр для отображения только новых продуктов.'
        required: false
        example: true
        type: boolean
        enumValues: []
        exampleWasSpecified: true
        nullable: true
        custom: []
      is_bestseller:
        name: is_bestseller
        description: 'Фильтр для отображения только хитов продаж.'
        required: false
        example: true
        type: boolean
        enumValues: []
        exampleWasSpecified: true
        nullable: true
        custom: []
      ids:
        name: ids
        description: 'Список ID продуктов через запятую для фильтрации.'
        required: false
        example: '1,2,3'
        type: string
        enumValues: []
        exampleWasSpecified: false
        nullable: true
        custom: []
      sort:
        name: sort
        description: 'Сортировка результатов (price_asc, price_desc, name_asc, name_desc, created_at_desc).'
        required: false
        example: price_asc
        type: string
        enumValues: []
        exampleWasSpecified: true
        nullable: true
        custom: []
      per_page:
        name: per_page
        description: 'Количество результатов на странице (от 1 до 100).'
        required: false
        example: 15
        type: integer
        enumValues: []
        exampleWasSpecified: true
        nullable: true
        custom: []
    cleanQueryParameters:
      search: свеча
      category: aromaticheskie-svechi
      price_from: '100'
      price_to: '500'
      is_new: true
      is_bestseller: true
      ids: '1,2,3'
      sort: price_asc
      per_page: 15
    bodyParameters: []
    cleanBodyParameters: []
    fileParameters: []
    responses:
      -
        status: 200
        content: |-
          {
            "data": [
              {
                "id": 1,
                "name": "Ароматическая свеча Лаванда",
                "slug": "aromaticheskaya-svecha-lavanda",
                "description": "Успокаивающий аромат лаванды для безмятежного отдыха",
                "price": 1200.99,
                "dimensions": {
                  "width": 10,
                  "height": 12,
                  "depth": 10,
                  "weight": 350
                },
                "images_urls": ["http://localhost:8000/storage/1/images/candle1.jpg"],
                "created_at": "2023-01-01T12:00:00.000000Z",
                "updated_at": "2023-01-01T12:00:00.000000Z"
              }
            ],
            "links": {
              "first": "/api/v1/products?page=1",
              "last": "/api/v1/products?page=5",
              "prev": null,
              "next": "/api/v1/products?page=2"
            },
            "meta": {
              "current_page": 1,
              "from": 1,
              "last_page": 5,
              "path": "/api/v1/products",
              "per_page": 15,
              "to": 15,
              "total": 75
            }
          }
        headers: []
        description: 'Успешный запрос'
        custom: []
    responseFields: []
    auth: []
    controller: null
    method: null
    route: null
    custom: []
